[
    {
        "id":[
            1183
        ],
        "attacks":[
            {
                "attackType":1,
                "projectileId":249,
                "startGfx":250
            }
        ]
    },     
    {
        "id":[
            51
        ],
        "attacks":[
            {
                "attackType":0,
                "animId":13151
            },
            {
                "attackType":2,
                "startGfx":2465,
                "animId":13152
            }
        ]
    },  
    {
        "id":[
            8349
        ],
        "attacks":[
            {
                "attackType":0,
                "startGfx":1886
            },
            {
                "attackType":1,
                "projectileId":1884
            },
            {
                "attackType":2,
                "projectileId":1887
            }
        ]
    },
    {
        "id":[
            2028
        ],
        "attacks":[
            {
                "attackType":1,
                "projectileId":27
            }
        ]
    },
    {
        "id":[
            2881,
            2894
        ],
        "attacks":[
            {
                "attackType":1,
                "projectileId":298
            }
        ]
    },
    {
        "id":[
            2882
        ],
        "attacks":[
            {
                "attackType":2,
                "projectileId":162,
                "endGfx":477
            }
        ]
    },
    {
        "id":[
            2892
        ],
        "attacks":[
            {
                "attackType":2,
                "projectileId":94,
                "endGfx":95
            }
        ]
    },
    {
        "id":[
            3102
        ],
        "attacks":[
            {
                "attackType":1,
                "projectileId":1839
            }
        ]
    },
    {
        "id":[
            3103
        ],
        "attacks":[
            {
                "attackType":2,
                "projectileId":1828
            }
        ]
    },
    {
        "id":[
            5229,
            5230,
            5231,
            5232,
            5233,
            5234,
            5235,
            5236,
            5237
        ],
        "attacks":[
            {
                "attackType":1,
                "projectileId":866,
                "endGfx":865
            }
        ]
    },
    {
        "id":[
            6221
        ],
        "attacks":[
            {
                "attackType":2,
                "endGfx":78
            }
        ]
    },
    {
        "id":[
            6223,
            6231
        ],
        "attacks":[
            {
                "attackType":2,
                "projectileId":1199
            }
        ]
    },
    {
        "id":[
            6225,
            6230,
            6233
        ],
        "attacks":[
            {
                "attackType":1,
                "projectileId":1190
            }
        ]
    },
    {
        "id":[
            6227,
            6248
        ],
        "attacks":[
            {
                "attackType":0
            }
        ]
    },
    {
        "id":[
            6232,
            6239
        ],
        "attacks":[
            {
                "attackType":1,
                "projectileId":1191
            }
        ]
    },
    {
        "id":[
            6250
        ],
        "attacks":[
	    {
		"attackType":0
	    },
            {
                "attackType":2,
                "projectileId":1185,
                "startGfx":1184,
		"animId":7019
            }
        ]
    },
    {
        "id":[
            6252
        ],
        "attacks":[
            {
                "attackType":1,
                "projectileId":9
            }
        ]
    },
    {
        "id":[
            6257
        ],
        "attacks":[
            {
                "attackType":2,
                "endGfx":76
            }
        ]
    },
    {
        "id":[
            6276
        ],
        "attacks":[
            {
                "attackType":1,
                "projectileId":1195
            }
        ]
    },
    {
        "id":[
            6263
        ],
        "attacks":[
            {
                "attackType":2,
                "projectileId":1203,
                "startGfx":1202
            }
        ]
    },
    {
        "id":[
            6265
        ],
        "attacks":[
            {
                "attackType":1,
                "projectileId":1206
            }
        ]
    },
    {
        "id":[
            6260
        ],
        "attacks":[
	    {
		"attackType":0
	    },
            {
                "attackType":2,
                "projectileId":1200
            }
        ]
    },
    {
        "id":[
            6203
        ],
        "attacks":[
	    {
		"attackType":0
	    },
            {
                "attackType":2,
		"animId":6947,
                "projectileId":1213
            }
        ]
    },
    {
        "id":[
            6206
        ],
        "attacks":[
	    {
		"attackType":0
	    },
            {
                "attackType":2,
		"animId":6947,
                "projectileId":1211,
                "startGfx":1210
            }
        ]
    },
    {
        "id":[
            6208
        ],
        "attacks":[
	    {
		"attackType":0
	    },
            {
                "attackType":2,
		"animId":6947,
                "projectileId":1213,
                "startGfx":1212
            }
        ]
    },
    {
        "id":[
            7137,1643,1644,1645,1646,1647
        ],
        "attacks":[
            {
                "attackType":2,
		"animId":2791,
                "projectileId":2731,
                "startGfx":2728,
		"endGfx":2740
            }
        ]
    },
    {
        "id":[
            8756
        ],
        "attacks":[
	    {
		"attackType":0
	    }, 
            {
                "attackType":2,
		"animId":8757
            }
        ]
    },
    {
        "id":[
            13459
        ],
        "attacks":[
            {
                "attackType":2,
		"animId":1979,
		"endGfx":373
            }
        ]
    },
    {
        "id":[
            13458
        ],
        "attacks":[
            {
                "attackType":2,
		"endGfx":2884,
		"projectileId":2883,
		"animId": 7004
            }
        ]
    },
    {
        "id":[
            9172
        ],
        "attacks":[
            {
                "attackType":2,
		"endGfx":2884,
		"projectileId":2883,
		"animId": 12042
            }
        ]
    },
    {
        "id":[
            13457
        ],
        "attacks":[
            {
                "attackType":1,
		"projectileId":2886
            }
        ]
    },
	{
        "id":[
            1854
        ],
        "attacks":[
            {
                "attackType":1,
		"projectileId":13
            }
        ]
    },
	{
        "id":[
            1857
        ],
        "attacks":[
            {
                "attackType":2,
		"projectileId":1155,
		"animId": 1844
            }
        ]
    },
	{
        "id":[
            172
        ],
        "attacks":[
            {
                "attackType":2,
		"startGfx":2728,
		"endGfx":2737,
		"projectileId":2729,
		"animId": 14221
            }
        ]
    },
	{
        "id":[
            174
        ],
        "attacks":[
            {
                "attackType":2,
		"startGfx":2728,
		"endGfx":2737,
		"projectileId":2729,
		"animId": 14221
            }
        ]
    },
    {
        "id":[
            10328,
            10329,
            10330,
            10331,
            10332,
            10333,
            10334,
            10335,
            10336,
            10337,
            10338,
            10339,
            10340,
            10341,
            10342,
            10343,
            10344,
            10345,
            10346,
            10347,
            10348,
            10349,
            10350,
            10351,
            10352,
            10353,
            10354,
            10355,
            10356,
            10357,
            10358,
            10359,
            10360,
            10361,
            10362,
            10363
        ],
        "attacks":[
            {
                "attackType":1,
                "projectileId":13
            }
        ]
    }
]