//id	death	defend	attack
1	836	424	422
2	836	-1	422
3	836	424	422
4	836	424	422
5	836	-1	422
6	836	-1	422
7	836	-1	422
8	836	-1	422
9	836	1156	390
13	836	425	711
15	836	425	386
16	836	-1	422
18	836	-1	390
19	836	410	406
20	836	-1	390
21	836	-1	390
23	836	-1	390
24	836	-1	422
25	836	-1	422
26	-1	-1	390
32	836	-1	390
34	836	-1	422
35	836	-1	390
38	836	-1	422
39	836	-1	401
41	5389	5388	5387
46	3468	-1	-1
47	2707	-1	2705
48	5389	5388	5387
49	6576	6578	6579
50	92	89	80
51	13153	13154	13151
52	14271	14269	14270
53	12250	12251	12252
54	12250	12251	12252
55	12250	12251	12252
58	5329	5328	5327
59	5329	5328	5327
60	5329	5328	5327
61	6251	6250	5327
62	5329	5328	5327
63	5329	5328	5327
64	5329	5328	5327
73	5569	5567	5568
74	5569	5567	5568
75	5569	5567	5568
76	5569	5567	5568
77	5569	5567	5568
78	4917	4916	4915
79	4917	4916	4915
81	244	5850	5849
82	67	65	64
83	67	65	64
84	67	65	64
86	14860	14861	14859
87	14860	14861	14859
88	14860	14861	14859
89	6377	6375	6376
90	5491	5489	5485
91	5491	5489	5485
92	5491	5489	5485
93	5503	5489	5499
94	5491	5489	5487
95	6576	6578	6579
96	6558	6557	6559
97	6558	6557	6559
99	6564	6566	6565
101	2373	6189	6184
103	5542	5541	5540
104	5534	5533	5532
105	4929	4927	4925
106	4929	4927	4925
107	6256	6255	6254
108	6256	6255	6254
109	6260	6259	6261
110	4653	4664	4652
111	4653	4671	4652
112	4659	4657	4658
116	4653	4651	4652
117	4653	4651	4652
118	102	100	99
119	102	100	99
120	102	100	99
122	2373	2372	2371
123	2373	2372	2371
124	836	-1	390
125	843	389	391
126	14096	14095	14094
127	188	186	185
128	278	276	275
131	5671	5670	5669
132	223	221	220
133	6377	6375	6376
134	5329	5328	5327
138	1013	1012	1010
140	340	-1	338
141	6558	6578	6559
143	6558	-1	6559
144	6256	6255	6254
145	843	389	391
158	843	-1	394
159	196	-1	191
160	196	-1	191
161	196	-1	191
163	1224	-1	1218
164	196	-1	192
168	196	-1	191
169	196	-1	191
170	836	-1	422
172	836	424	14221
173	836	424	14221
174	836	424	14221
175	836	-1	422
176	836	-1	423
178	836	424	390
180	836	424	386
181	836	424	7182
186	836	-1	386
187	836	-1	386
188	836	424	422
189	836	-1	422
190	836	424	422
191	836	-1	428
192	836	-1	390
193	836	-1	401
194	836	-1	422
196	836	-1	386
199	836	-1	395
201	836	-1	422
202	836	-1	390
203	836	-1	390
204	836	-1	390
205	836	-1	422
206	102	100	99
221	131	-1	128
222	836	-1	422
224	4935	-1	4933
237	6490	-1	6489
238	5542	-1	5540
255	836	-1	395
256	836	-1	395
270	8576	-1	2100
271	6256	-1	6254
274	10800	-1	10797
275	10801	-1	10797
277	836	-1	-1
281	836	-1	422
282	836	-1	386
283	836	-1	390
296	7219	-1	7218
297	7220	-1	7218
298	7219	-1	7218
299	7213	-1	583
347	836	-1	414
348	836	-1	422
351	836	-1	422
352	836	-1	422
353	836	-1	422
354	836	-1	422
360	836	-1	422
361	836	-1	422
362	836	-1	422
363	836	-1	422
369	836	-1	422
374	17506	-1	17505
390	2373	-1	2371
392	2373	-1	2371
397	244	-1	245
412	4918	-1	30
419	5569	-1	5568
420	5569	-1	5568
421	5569	-1	5568
422	5569	-1	5568
423	5569	-1	5568
424	5569	-1	5568
438	97	95	94
439	97	95	94
440	97	95	94
441	97	95	94
442	97	95	94
443	97	95	94
446	14860	-1	14859
447	-1	-1	-1
448	-1	-1	-1
449	-1	-1	-1
453	836	-1	390
459	836	5489	422
475	836	-1	401
476	14917	-1	14916
477	836	424	401
478	836	-1	428
479	196	-1	190
489	6190	-1	6199
493	6260	6259	6261
502	5491	5489	5485
503	5491	5489	5485
504	5569	5567	5568
505	5575	-1	5571
532	14500	-1	14503
609	836	-1	428
643	836	-1	390
645	836	-1	422
655	5534	5533	5532
674	836	-1	422
677	17461	-1	17462
688	836	-1	426
689	836	-1	426
690	836	-1	426
691	836	-1	426
708	172	-1	169
745	6204	-1	6184
749	6727	-1	6726
750	6727	-1	6726
751	302	-1	6726
752	6727	-1	6726
753	836	-1	423
795	836	-1	422
799	836	-1	390
803	836	-1	422
827	836	-1	422
830	836	-1	390
837	836	-1	390
839	6558	-1	6559
842	188	-1	185
852	11476	-1	11470
862	8576	-1	2100
870	8576	-1	2100
871	361	-1	359
877	836	-1	386
894	836	-1	422
897	258	-1	255
898	5329	-1	5327
899	4929	-1	4925
900	6558	-1	6559
912	836	-1	811
913	836	-1	811
914	196	193	197
917	-1	-1	-1
931	836	-1	428
941	11250	12251	12252
977	5329	-1	5327
978	14860	-1	14859
1002	836	-1	422
1007	836	-1	422
1017	5389	5388	5387
1018	5389	5388	5387
1019	1031	-1	1029
1020	4870	-1	4868
1021	1041	-1	1040
1022	1048	-1	1044
1044	836	-1	422
1045	836	-1	422
1046	836	-1	422
1053	9467	-1	12519
1092	836	-1	7042
1095	13785	-1	6523
1096	13785	-1	18809
1101	13785	65	13790
1102	13785	65	13790
1103	13785	-1	13790
1104	13785	-1	13790
1105	13785	-1	13790
1106	13785	65	17965
1107	13785	-1	17967
1108	13785	-1	17968
1109	13785	-1	17967
1110	13785	-1	17965
1111	13785	-1	17967
1112	13785	-1	17965
1115	13785	-1	13788
1116	13785	-1	13788
1117	13785	-1	13788
1118	13785	-1	17965
1119	13785	5897	17967
1120	13785	-1	17968
1121	13785	5723	17967
1122	13785	5723	17968
1123	13785	5723	17967
1124	13785	5723	17965
1125	13785	-1	1158
1126	13785	-1	17966
1127	13785	-1	17966
1128	13785	-1	5821
1129	13785	-1	13791
1130	13785	-1	13790
1131	13785	-1	13790
1132	13785	-1	13790
1133	13785	-1	13790
1134	13785	-1	13790
1138	13785	-1	17966
1153	6242	6227	6241
1154	6242	6227	6241
1155	6242	6227	6241
1156	6242	6227	6241
1157	6242	6227	6241
1158	6242	6243	6241
1160	6233	6237	6235
1172	315	-1	313
1183	836	-1	426
1184	836	-1	428
1192	6092	1244	6090
1195	4929	4927	4925
1196	4930	4928	4926
1198	6558	-1	6559
1200	836	-1	414
1217	836	-1	433
1218	836	-1	422
1219	1272	-1	1273
1220	6031	-1	6016
1227	8144	-1	8143
1228	8144	-1	8143
1229	8144	-1	8143
1230	8144	-1	8143
1231	8144	-1	8143
1232	8144	-1	8143
1233	8144	-1	8143
1234	8144	-1	8143
1235	8144	-1	8143
1239	836	-1	390
1240	-1	-1	-1
1241	1287	-1	1283
1243	-1	-1	-1
1244	1287	-1	1283
1245	-1	-1	-1
1246	1287	-1	1283
1247	-1	-1	-1
1248	1287	-1	1283
1249	-1	-1	-1
1250	1287	-1	1284
1257	836	-1	422
1258	836	-1	422
1261	836	-1	422
1262	836	-1	422
1264	836	-1	376
1265	1314	1313	1312
1267	1314	1313	1312
1279	836	-1	390
1290	836	-1	390
1317	836	-1	390
1318	836	1156	401
1319	6570	-1	6562
1320	1246	-1	1245
1326	17292	-1	17291
1328	6377	6375	6376
1329	6377	6375	6376
1330	6558	-1	6559
1338	1342	-1	1341
1339	1342	-1	1341
1340	1342	-1	1341
1341	1342	-1	1341
1342	1342	-1	1341
1343	1342	-1	1341
1351	1342	-1	1341
1382	9961	9962	9955
1455	1384	-1	1392
1456	-1	-1	-1
1459	1404	1403	1402
1460	1404	-1	1402
1465	1384	-1	1383
1471	5521	-1	5519
1472	67	65	64
1475	6779	-1	6775
1476	6777	-1	6775
1478	5329	-1	5327
1521	5990	-1	5989
1524	5972	-1	5970
1532	9658	-1	-1
1534	9658	-1	-1
1539	5491	5489	5485
1550	6762	-1	6761
1558	6558	-1	6559
1560	13785	-1	17965
1561	13785	-1	13786
1562	13785	-1	17968
1563	13785	-1	13786
1564	13785	-1	17968
1565	13785	-1	13786
1566	13785	-1	17965
1575	6558	-1	6579
1583	4668	-1	4667
1584	4668	-1	4667
1586	4668	-1	4667
1587	4659	-1	4658
1588	4659	-1	4658
1589	14271	14269	14270
1590	14248	14249	14247
1591	14248	14249	14247
1592	14248	14249	14247
1593	6564	6566	6565
1594	6564	6566	6565
1600	265	267	266
1601	265	267	266
1602	265	267	266
1603	265	267	266
1604	9467	-1	9466
1605	9467	-1	9466
1606	9467	-1	9466
1607	9467	-1	9466
1608	9440	9441	9439
1609	9440	9441	9439
1610	9445	9455	9454
1611	9445	9455	9454
1612	9450	9451	9449
1613	9488	9489	9487
1614	9460	9461	9459
1615	1538	1537	1537
1616	264	261	260
1617	264	261	260
1618	9131	9132	9130
1619	9131	9132	9130
1620	7763	7761	7762
1623	9477	9478	9476
1624	1558	1555	1557
1625	1558	1596	1557
1626	9477	9478	9476
1627	9477	9478	9476
1628	9477	9478	9476
1629	9477	9478	9476
1630	9477	9478	9471
1631	9507	9508	9506
1632	9507	9508	9506
1633	8078	8079	8080
1634	8078	8079	8080
1635	8078	8079	8080
1636	8078	8079	8080
1637	8570	8571	8569
1638	8570	8571	8569
1639	8570	8571	8569
1640	8570	8571	8575
1641	8570	8571	8575
1642	8570	8571	8575
1643	7185	7198	7183
1644	7185	7198	7183
1645	7185	7198	7183
1646	7185	7198	7183
1647	7185	7197	7183
1648	9126	9127	9125
1649	9126	9127	9125
1650	9126	9127	9125
1651	9126	9127	9125
1652	9126	9127	9125
1653	1590	9446	9127
1654	9126	9446	9127
1655	9126	9446	9127
1656	9126	9446	9127
1657	9126	9446	9127
1676	1628	1627	1626
1677	1618	1617	1616
1678	1611	1613	1612
1681	4659	0	4658
1691	5851	5850	5849
1692	5389	5388	5387
1693	6267	-1	6265
1698	836	-1	422
1710	836	-1	390
1711	836	-1	390
1712	836	-1	390
1752	6791	-1	6790
1757	836	-1	7181
1758	836	-1	7181
1760	7185	-1	7181
1767	244	-1	245
1769	6182	6183	6184
1770	6182	312	6184
1771	6182	312	6184
1772	6182	312	6184
1773	6182	312	6184
1774	6182	6183	6184
1775	6182	6183	6184
1776	6182	6183	6184
1777	6182	6183	6184
1795	102	100	99
1796	102	100	99
1797	102	100	99
1812	1759	-1	1760
1814	836	-1	422
1815	836	-1	422
1816	836	-1	422
1817	836	-1	422
1818	836	-1	422
1822	6003	-1	6001
1823	6003	-1	6001
1824	6003	-1	6001
1825	6003	-1	6001
1828	1795	-1	1793
1829	1795	-1	1793
1831	1792	-1	1793
1832	6082	-1	6079
1850	1841	1842	1840
1851	1841	1842	1840
1852	1841	1842	1840
1853	1841	-1	1843
1854	1841	-1	1843
1855	1841	-1	1843
1856	1841	-1	1844
1857	1841	-1	1844
1858	1841	-1	1844
1874	278	276	275
1885	836	-1	390
1904	-1	-1	-1
1906	836	-1	395
1919	836	-1	377
1936	13785	-1	17965
1937	13785	-1	13786
1938	13785	-1	17968
1939	13785	-1	13786
1940	13785	-1	17968
1941	13785	-1	13786
1942	13785	-1	17968
1958	5555	-1	5549
1961	5555	-1	5549
1962	5555	-1	5549
1963	5555	-1	5549
1964	5555	-1	5549
1965	5555	-1	5549
1967	5555	-1	5549
1969	1946	-1	1948
1973	5503	-1	5499
1976	6564	6566	6565
1991	836	-1	429
1994	6567	-1	6568
1995	2013	-1	2015
1997	1022	-1	1021
2001	1946	-1	1948
2011	92	89	91
2015	5555	-1	5554
2016	5555	-1	5554
2017	5555	-1	5554
2018	5555	-1	5554
2019	5555	-1	5554
2025	836	424	14223
2026	836	-1	2067
2027	836	-1	2080
2028	836	-1	2075
2029	836	-1	2068
2030	836	-1	2062
2031	2073	-1	2070
2032	14860	14861	4933
2033	141	-1	138
2034	6251	-1	6249
2035	146	-1	5327
2036	5491	5489	12632
2037	5491	5489	5485
2069	6003	-1	6007
2070	6003	-1	6007
2071	6003	-1	6007
2072	6003	-1	6007
2073	6003	-1	6007
2074	6003	-1	6007
2130	102	100	99
2131	102	100	99
2132	102	100	99
2134	102	100	99
2135	102	100	99
2136	102	100	99
2236	836	-1	390
2045	22408	21742	21741
2246	836	-1	429
2263	2183	2181	2181
2264	2189	-1	2187
2265	2194	-1	2192
2310	5331	-1	5332
2359	836	-1	428
2360	836	-1	428
2361	836	-1	426
2362	836	-1	426
2373	836	-1	428
2443	-1	-1	-1
2452	1314	-1	1312
2454	1342	1340	1341
2455	1342	1340	1341
2456	1342	1340	1341
2457	2367	2366	2365
2468	836	-1	390
2489	278	276	275
2491	5329	5328	5327
2492	5329	5328	5327
2493	2398	-1	2397
2494	2398	-1	2397
2495	2398	-1	2397
2497	836	-1	428
2499	836	2403	2401
2501	836	2403	2401
2503	836	2403	2401
2547	836	-1	7182
2605	9288	9287	9345
2606	9288	9287	9345
2607	9288	9287	9286
2627	9230	9231	9232
2630	9234	9235	9233
2631	9239	9242	9243
2674	836	-1	422
2677	836	-1	386
2688	165	164	163
2693	3468	-1	-1
2694	3468	-1	-1
2696	836	-1	422
2697	836	-1	422
2698	836	-1	422
2699	836	-1	390
2700	836	-1	422
2701	836	-1	422
2702	836	-1	390
2703	836	-1	390
2709	2553	-1	414
2710	2553	-1	414
2711	2553	-1	414
2712	2553	-1	414
2738	9234	9235	9233
2741	9247	9248	9246
2743	9269	9268	9265
2745	9279	9278	9277
2746	9257	9253	9254
2779	836	-1	426
2782	2739	-1	2738
2783	2733	2732	2731
2803	1581	-1	1579
2804	1581	2869	1579
2805	1581	-1	1579
2807	1581	-1	1579
2808	1581	-1	1579
2837	5649	-1	5647
2838	5654	-1	5651
2839	5654	-1	5651
2840	5654	-1	5651
2841	5649	-1	5647
2842	5649	5648	5647
2843	5649	-1	5647
2844	5649	-1	5647
2845	5654	-1	5651
2846	5654	-1	5651
2847	5649	-1	5647
2848	5649	-1	5647
2849	2805	-1	2804
2850	5321	-1	5319
2880	1581	-1	1579
2881	2856	2852	2855
2882	2856	2852	2854
2883	2856	2852	2853
2884	2367	2366	2365
2889	2862	-1	2859
2892	2866	2869	2868
2894	2866	2869	2868
3026	2919	-1	2917
3027	2919	-1	2917
3028	2919	-1	2917
3057	2946	-1	2951
3058	6369	2937	6368
3059	836	-1	422
3060	6190	-1	6188
3061	2958	2961	12408
3062	172	-1	5285
3063	8576	2937	2100
3064	4677	4676	4629
3065	5514	2720	5512
3066	5580	2926	5581
3068	1591	-1	1589
3069	1591	-1	1589
3070	1591	-1	1589
3071	1591	-1	1589
3072	4673	-1	4672
3073	843	389	391
3090	836	-1	7048
3135	-1	-1	-1
3153	1585	-1	1584
3200	5446	5444	5443
3219	102	100	99
3220	102	100	99
3221	102	100	99
3222	836	-1	422
3223	836	-1	422
3225	836	-1	422
3228	836	-1	386
3229	836	-1	-1
3230	836	-1	395
3231	836	-1	422
3232	836	-1	422
3233	836	-1	422
3234	836	-1	433
3242	836	-1	422
3243	836	-1	422
3244	836	-1	422
3245	836	-1	422
3246	836	-1	2067
3247	836	-1	7048
3248	836	-1	2067
3249	836	-1	401
3250	836	-1	2067
3251	836	-1	7048
3252	836	-1	2067
3253	836	-1	401
3255	836	-1	401
3256	836	-1	390
3257	836	-1	2067
3258	836	-1	401
3259	836	-1	426
3260	836	-1	428
3261	836	-1	428
3262	836	-1	428
3263	836	-1	428
3268	102	100	99
3269	102	100	99
3270	102	100	99
3271	102	100	99
3272	102	100	99
3273	102	100	99
3274	102	100	99
3275	102	100	99
3276	102	100	99
3277	102	100	99
3278	102	100	99
3291	5491	5489	5485
3319	13879	-1	13876
3320	13880	-1	13877
3334	12793	-1	12791
3335	12793	-1	12791
3340	3310	3311	3312
3346	2777	-1	2776
3348	836	-1	7042
3349	836	-1	7042
3350	836	-1	7042
3375	2301	2300	2299
3376	14271	14269	14270
3406	17491	-1	17491
3407	7219	-1	7218
3408	7213	-1	583
3409	7249	-1	7246
3410	7249	-1	7246
3411	7249	-1	7246
3412	7249	-1	7246
3421	3430	-1	3428
3422	3435	-1	3433
3476	6801	-1	6800
3484	3540	-1	3538
3491	3357	-1	1979
3493	3503	3500	3501
3494	21752	21751	21750
3495	836	424	1979
3496	3509	3505	3507
3497	1342	-1	1341
3521	5798	-1	5783
3526	6031	-1	6016
3527	5798	-1	-1
3531	6781	-1	6276
3532	6781	-1	6276
3534	6781	-1	-1
3577	6031	-1	6016
3581	5491	5489	5487
3582	6564	6563	6562
3583	-1	12406	12405
3584	287	285	285
3585	5321	5320	5319
3586	6576	6563	6562
3588	28	26	25
3589	6228	-1	6223
3590	92	89	91
3593	19591	-1	19600
3594	3711	3710	3709
3599	5798	-1	-1
3601	6781	-1	-1
3618	3620	-1	3618
3619	3733	-1	3731
3645	17290	-1	17286
3646	6377	6375	6376
3647	4935	-1	4933
3648	6182	-1	6185
3649	3813	-1	3812
3650	3821	-1	3818
3655	3827	-1	3823
3663	6182	-1	6185
3672	5343	-1	5341
3673	5336	-1	5338
3675	2021	-1	2019
3697	836	6129	6128
3700	836	-1	6128
3701	836	6129	6128
3703	836	6129	6128
3704	836	-1	6128
3707	6115	-1	6117
3711	2620	-1	2621
3727	3888	3886	3891
3728	3888	3886	3891
3729	3888	3886	3891
3730	3888	3886	3891
3731	3888	3886	3891
3732	3903	3902	3901
3733	3903	3902	3901
3734	3903	3902	3901
3735	3903	3902	3901
3736	3903	3902	3901
3737	3903	3902	3901
3738	3903	3902	3901
3739	3903	3902	3901
3740	3903	3902	3901
3741	3903	3902	3901
3742	3916	3916	3915
3743	3916	3916	3915
3744	3916	3916	3915
3745	3916	3916	3915
3746	3916	3916	3915
3747	3910	3909	3908
3748	3910	3909	3908
3749	3910	3909	3908
3750	3910	3909	3908
3751	3910	3909	3908
3752	3881	3880	3882
3753	3881	3880	3882
3754	3881	3880	3882
3755	3881	3880	3882
3756	3881	3880	3882
3757	3881	3880	3882
3758	3881	3880	3882
3759	3881	3880	3882
3760	3881	3880	3882
3761	3881	3880	3882
3762	3922	3921	3920
3763	3922	3921	3920
3764	3922	3921	3920
3765	3922	3921	3920
3766	3922	3921	3920
3767	3922	3921	3920
3768	3922	3921	3920
3769	3922	3921	3920
3770	3922	3921	3920
3771	3922	3921	3920
3772	3894	3895	3897
3773	3894	3895	3897
3774	3894	3895	3897
3775	3894	3895	3897
3776	3894	3895	3897
3783	7256	-1	7260
3808	3962	-1	3960
3814	196	-1	190
3815	196	-1	3969
3816	196	-1	3968
3819	3962	-1	3960
3840	13785	-1	13791
3843	13785	-1	13791
3847	3993	3990	3992
3851	5491	5489	5487
3915	836	-1	422
3939	3540	3539	3538
3940	3540	3539	3538
3943	4039	4041	4040
4172	6256	6255	6254
4173	25329	25328	25327
4174	4929	-1	4925
4175	5491	25508	25499
4186	836	-1	423
4188	27146	27144	27145
4189	-1	-1	-1
4261	6190	-1	6199
4258	102	100	99
4278	4167	424	390
4279	4167	424	390
4280	4167	424	386
4281	4167	424	386
4282	4167	424	386
4283	4167	424	407
4284	4167	424	386
4291	4653	4651	4652
4292	4653	4651	4652
4307	836	-1	390
4345	4917	4916	4915
4347	2398	-1	2397
4348	4233	-1	4235
4350	4233	-1	4235
4351	4233	-1	4235
4352	4233	-1	4235
4353	4233	-1	4235
4355	4233	-1	4235
4357	4233	-1	4235
4381	836	424	422
4382	836	424	422
4383	836	424	422
4385	5491	5489	5485
4388	5534	5533	5532
4389	1190	-1	1184
4395	14860	-1	14859
4402	6256	6255	6254
4403	6256	6255	6254
4404	4265	4267	4266
4406	4265	4267	4266
4407	6190	6189	6188
4408	6190	6189	6188
4409	6190	6189	6188
4410	6190	6189	6188
4411	6190	6189	6188
4412	6190	6189	6188
4413	6576	6578	6579
4414	6576	6578	6579
4440	6377	6375	6376
4470	97	-1	94
4509	836	-1	414
4510	836	-1	414
4540	-1	-1	11300
4603	836	-1	390
4604	836	-1	428
4605	836	-1	428
4606	836	-1	390
4615	-1	-1	-1
4669	12250	12251	12252
4670	12250	12251	12252
4671	12250	12251	12252
4672	12250	12251	12252
4673	12250	12251	12252
4674	12250	12251	12252
4675	12250	12251	12252
4676	12250	12251	12252
4677	12250	12251	12252
4678	12250	12251	12252
4679	12250	12251	12252
4680	12250	12251	12252
4681	12250	12251	12252
4682	12250	12251	12252
4683	12250	12251	12252
4684	12250	12251	12252
4686	4673	-1	4672
4688	4659	-1	4658
4689	4653	-1	4652
4690	4653	-1	4652
4691	4653	-1	4652
4692	4653	-1	4652
4693	4653	-1	4652
4694	19617	-1	19616
4695	19617	-1	19615
4696	19617	-1	19616
4697	19617	-1	19616
4698	17464	-1	17463
4699	17464	-1	17463
4700	17464	-1	17463
4701	17464	-1	17463
4702	17461	65	17462
4703	17461	-1	17462
4704	17461	-1	17462
4705	17461	-1	17462
4706	4659	-1	4658
4733	13675	-1	13620
4774	6781	-1	6276
4775	6781	-1	6276
4776	5798	-1	5783
4777	5798	-1	5783
4778	6781	-1	-1
4779	6781	-1	-1
4780	5798	-1	-1
4789	6031	-1	6016
4796	13683	-1	13617
4805	-1	-1	7435
4806	-1	-1	7435
4807	-1	-1	7435
4808	-1	-1	7435
4810	7524	-1	7435
4811	7524	-1	7435
4812	7524	-1	7435
4813	6861	-1	6783
4814	6861	-1	6783
4815	6861	-1	6783
4816	6861	-1	6783
4817	-1	-1	7435
4818	-1	-1	7435
4819	-1	-1	7435
4820	-1	-1	7435
4821	7524	-1	7435
4822	7524	-1	7435
4823	7524	-1	7435
4824	7524	-1	7435
4825	6861	-1	6783
4826	6861	-1	6783
4827	6861	-1	6783
4828	6861	-1	6783
4845	7524	-1	7435
4868	13669	-1	13615
4870	13675	-1	13620
4890	4830	-1	4829
4893	6267	-1	6261
4920	14860	-1	14859
4921	14860	-1	14859
4922	14860	-1	14859
4923	14860	-1	14859
4924	14860	-1	14859
4926	14860	-1	14859
4927	14860	-1	14859
4928	14860	-1	14859
4929	14860	-1	14859
4930	5343	-1	5341
4931	5343	-1	5341
4932	5343	-1	5341
4936	4935	-1	4933
4937	4935	-1	4933
4940	4935	-1	4933
4941	14860	-1	14859
4945	14860	-1	14859
4971	5033	-1	5031
4972	5027	-1	5024
4989	836	-1	390
4990	836	-1	390
4991	836	-1	390
4992	836	-1	390
4993	836	-1	390
4994	836	-1	390
4995	836	-1	390
4996	836	-1	390
4997	836	-1	390
4998	836	-1	390
5048	836	-1	401
5080	5183	-1	-1
5097	836	-1	395
5144	836	-1	422
5145	836	-1	422
5170	5336	-1	5338
5176	11476	11473	11471
5181	11476	11473	11471
5184	11476	11473	11471
5187	11476	11473	11471
5190	11476	11473	11471
5193	11476	11473	11471
5188	8948	-1	8946
5204	836	-1	7041
5217	5098	5096	5097
5218	5098	5096	5097
5219	5098	5096	5097
5229	5397	5396	5395
5230	5397	5396	5395
5231	5397	5396	5395
5232	5397	5396	5395
5233	5397	5396	5395
5234	5397	5396	5395
5235	5397	5396	5395
5236	5397	5396	5395
5237	5397	5396	5395
5247	5412	-1	5411
5248	5093	-1	5092
5250	7616	424	7621
5251	7581	-1	7584
5252	7581	-1	5451
5253	5456	-1	5457
5285	836	-1	426
5333	5491	5489	12632
5334	5491	5489	12632
5337	5491	5489	5485
5338	5491	5489	5487
5339	5491	5489	5487
5340	5491	5489	5485
5341	5503	-1	5499
5342	5534	5533	5532
5344	5534	5533	5532
5345	5534	5533	5532
5347	5534	5533	5532
5348	5534	5533	5532
5353	5491	5489	5485
5354	5491	5489	5487
5355	5569	5567	5568
5356	5569	5567	5568
5357	5575	-1	5571
5358	5575	-1	5571
5359	5503	-1	5499
5361	300	-1	299
5362	12250	12251	12252
5363	14248	14249	14247
5364	836	-1	2067
5372	836	-1	426
5373	836	-1	426
5374	9488	-1	9487
5381	5491	5489	5485
5382	4167	-1	386
5385	5491	5489	5485
5386	5491	5489	5485
5387	5491	5489	5485
5388	5491	5489	5485
5389	5491	5489	5485
5390	5491	5489	5485
5391	5491	5489	5485
5392	5491	5489	5485
5411	5491	5489	5485
5412	5491	5489	5485
5413	5592	-1	5591
5414	5596	-1	5597
5417	5628	-1	5625
5421	5619	5618	5617
5422	5491	5489	5485
5452	5726	-1	5725
5453	5726	-1	5725
5454	5726	-1	5725
5455	5726	-1	5725
5472	5209	-1	5374
5473	13785	-1	13786
5474	13785	-1	13786
5475	13785	-1	13791
5476	13785	-1	4332
5526	13785	13792	13791
5527	13785	13792	13790
5529	549	548	5849
5561	15003	-1	15004
5584	13702	-1	13703
5593	5841	-1	5842
5595	5389	5388	5387
5597	2301	-1	2299
5603	5851	-1	5849
5627	5649	-1	5647
5628	5649	-1	5647
5629	5649	-1	5647
5631	5649	-1	5647
5633	5649	-1	5647
5634	5649	-1	5647
5635	5649	-1	5647
5637	5654	-1	5651
5638	5654	-1	5651
5639	5654	-1	5651
5640	5654	-1	5651
5641	5654	-1	5651
5642	5654	-1	5880
5643	5654	-1	5880
5644	5654	-1	5880
5645	5654	-1	5880
5646	5654	-1	5880
5647	5886	-1	5884
5648	5886	-1	5884
5650	5886	-1	5884
5652	5886	-1	5884
5654	5886	-1	5884
5656	5891	-1	5889
5658	5891	-1	5889
5659	5891	-1	5889
5661	5891	-1	5889
5663	5891	-1	5889
5665	5891	-1	5889
5666	5898	5897	5894
5680	5972	-1	5970
5750	6081	-1	6079
5800	6003	-1	6007
5801	6003	-1	6007
5842	836	-1	390
5843	836	-1	390
5844	836	-1	390
5845	836	-1	390
5846	836	-1	390
5847	836	-1	390
5848	836	-1	390
5849	836	-1	390
5850	836	-1	390
5851	836	-1	390
5852	13018	-1	-1
5859	836	-1	426
5860	836	-1	429
5861	14369	-1	14380
5902	6322	-1	6325
5903	6322	-1	6345
5904	6331	-1	6329
5905	-1	-1	6342
5906	6315	6313	6310
5908	11396	-1	11398
5909	836	-1	422
5919	6490	6488	6489
5920	6490	6488	6489
5923	836	-1	422
5924	836	-1	422
5926	836	-1	422
5927	836	-1	422
5928	836	-1	422
5929	836	-1	422
5986	13005	-1	13001
5993	6512	-1	6513
5994	6521	-1	6519
5996	6502	6503	6501
6006	6537	-1	6536
6007	6537	-1	6536
6008	6537	-1	6536
6009	6537	-1	6536
6011	6537	-1	6536
6012	6537	-1	6536
6013	6537	-1	6536
6014	6537	-1	6536
6015	6537	-1	6536
6016	6537	-1	6536
6017	6537	-1	6536
6018	6537	-1	6536
6020	6537	-1	6536
6021	6537	-1	6536
6046	6558	6557	6559
6048	13005	-1	13001
6049	13353	-1	13276
6050	6558	-1	6559
6055	3299	-1	6559
6078	4653	4651	4652
6079	4653	4651	4652
6080	4653	4651	4652
6081	4653	4651	4652
6088	4935	-1	4933
6089	12793	-1	12791
6090	12793	-1	12791
6093	5491	5489	5487
6101	19617	-1	19615
6102	836	-1	422
6103	836	-1	2067
6104	836	-1	422
6105	836	-1	2067
6106	836	-1	390
6107	836	-1	422
6108	6812	-1	6811
6109	6791	-1	6790
6115	1015	-1	3467
6159	13336	-1	13337
6189	836	-1	390
6198	13459	-1	13448
6203	14969	14965	14963
6204	68	65	64
6206	68	65	69
6208	68	65	69
6210	6581	6578	6579
6211	169	170	169
6212	6537	6538	6536
6213	6537	6538	6536
6214	6231	6231	6231
6215	9435	9436	9675
6216	8078	8084	8080
6218	4302	4301	4300
6219	836	1156	12029
6220	836	424	426
6221	836	424	811
6222	6975	6974	6977
6223	6956	6955	6953
6225	6956	6955	6953
6227	6956	6955	6954
6229	6956	6952	6954
6230	6956	6952	6953
6231	6956	6952	6954
6232	6956	6952	6953
6233	6956	6952	6953
6234	6956	6952	6953
6235	6956	6952	6953
6236	6956	6952	6953
6237	6956	6952	6953
6238	6956	6952	6953
6239	6956	6952	6953
6240	6956	6952	6953
6241	6956	6952	6953
6242	6956	6952	6953
6243	6956	6952	6953
6244	6956	6952	6953
6245	6956	6952	6953
6246	6956	6952	6953
6247	6965	6966	6964
6248	6377	6375	6376
6250	7016	7017	7018
6252	7011	4311	7009
6254	836	-1	422
6255	836	-1	12029
6256	836	-1	426
6257	836	-1	811
6258	836	12030	406
6259	836	12030	401
6260	7062	7061	7060
6261	6156	6155	6154
6263	6156	6155	6154
6265	6156	6155	6154
6268	8576	2933	8577
6269	4653	4651	4652
6270	4653	4651	4652
6271	13892	13893	13891
6272	13892	13893	13891
6273	13892	13893	13891
6274	13892	13893	13891
6275	164	165	164
6276	4324	4322	4320
6277	4324	4322	4320
6278	4324	4322	4320
6279	6184	6183	6184
6280	6184	6183	6184
6281	6134	6183	6134
6282	6188	6183	6188
6283	6184	6183	6184
6285	7109	-1	7108
6286	7109	-1	7108
6287	7109	-1	7108
6288	7109	-1	7108
6289	7109	-1	7108
6291	7109	-1	7108
6292	7109	-1	7108
6294	7109	-1	7108
6295	7109	-1	7108
6296	7091	7092	7093
6306	13407	-1	-1
6344	3922	-1	3920
6358	-1	14799	14801
6363	836	-1	390
6364	836	-1	390
6365	836	-1	426
6366	836	-1	426
6367	836	424	422
6368	836	-1	-1
6369	7205	-1	7207
6371	836	-1	422
6376	5329	5328	5327
6378	6779	-1	6775
6379	7238	-1	7237
6380	7238	-1	7237
6381	7244	-1	7242
6382	6777	-1	6775
6469	6182	10855	7317
6470	6182	10855	7317
6471	6182	10855	7317
6472	6182	10855	7317
6473	6182	10855	7317
6514	17860	10855	17862
6605	7448	7450	7449
6606	7482	7483	7481
6607	836	424	422
6621	7482	7483	7481
6622	7482	7483	7481
6525	7398	7399	7397
6657	48	10855	47
6658	48	10855	47
6659	48	10855	47
6692	7442	7443	7441
6707	836	10855	-1
6712	5898	10855	5894
6761	5569	10855	5568
6762	5569	10855	5568
6763	5569	10855	5568
6770	7595	10855	7596
6772	7656	10855	7657
6773	7609	10855	7607
6774	7614	10855	7612
6776	7581	10855	7586
6777	7581	10855	7584
6778	7581	10855	5451
6780	7616	10855	7615
6789	7614	10855	7612
6790	7609	10855	7607
6795	1013	10855	6790
6797	8106	10855	8104
6799	8065	10855	8069
6801	7854	10855	7853
6803	8153	10855	8159
6805	7780	10855	7786
6807	8144	10855	8145
6810	7964	10855	7970
6816	8285	10855	8286
6819	7671	10855	7670
6821	7684	10855	7680
6823	6377	10855	6376
6826	7813	10855	5387
6828	8209	10855	8208
6830	8295	10855	8292
6832	7797	10855	7795
6834	8250	10855	8248
6836	8276	10855	8275
6838	6256	10855	6254
6840	4929	10855	4925
6842	5329	10855	5327
6844	7656	10855	7657
6846	7925	10855	7928
6848	14860	10855	14859
6850	8113	10855	8112
6854	8025	10855	8024
6856	8025	10855	4921
6858	8025	10855	5327
6860	8025	10855	7656
6862	8025	10855	7656
6864	8025	10855	8024
6866	7818	10855	7816
6868	7897	10855	7896
6872	7770	10855	7769
6874	852	10855	5782
6876	7763	10855	7762
6878	7763	10855	7762
6880	7763	10855	7762
6882	7763	10855	7762
6884	7763	10855	7762
6886	7763	10855	7762
6888	7763	10855	7762
6890	7256	10855	7260
6972	7185	10855	7181
6973	7185	10855	15914
6974	7185	10855	15914
6975	7185	10855	7181
6976	7185	10855	7182
6977	7185	10855	7182
6978	7185	10855	7182
6980	7185	10855	7182
6981	7185	10855	7182
6982	7185	10855	7181
6983	7185	10855	7182
6984	7185	10855	7181
6985	7185	10855	7182
6986	7185	10855	7182
6987	7185	10855	7182
6993	8570	10855	8569
6995	6228	10855	6223
7005	6558	10855	6559
7078	8640	10855	8636
7079	8640	10855	8636
7080	8641	10855	8637
7081	8640	10855	8636
7082	8641	10855	8637
7084	11400	11401	11402
7085	11403	11417	11404
7086	11410	11401	11408
7105	836	10855	7182
7106	836	10855	386
7107	836	10855	386
7108	836	10855	386
7109	836	10855	386
7110	836	10855	386
7111	836	10855	386
7112	836	10855	386
7113	836	10855	386
7114	836	10855	386
7133	8756	8755	8754
7134	8756	8755	8754
7135	8761	8762	8760
7137	-1	-1	7183
7138	836	10855	422
7139	836	10855	422
7140	836	10855	422
7141	836	10855	426
7158	8788	10855	8785
7159	8790	10855	8787
7160	8789	10855	8786
7330	8226	10855	8222
7332	8033	10855	8032
7334	8176	10855	8172
7336	7864	10855	7863
7338	5230	10855	5228
7340	7880	10855	7879
7342	7979	10855	7980
7344	8184	10855	8183
7346	8052	10855	8050
7348	5990	10855	5989
7350	7692	10855	7693
7352	8236	10855	8235
7354	7758	10855	7755
7356	7833	10855	7834
7358	7843	10855	7844
7360	7846	10855	8183
7362	8258	10855	8257
7364	5230	10855	5228
7366	5230	10855	5228
7368	8133	10855	8131
7371	8087	10855	8093
7373	7996	10855	7994
7376	7947	10855	8183
7378	8078	8079	8080
7398	13407	10855	-1
7443	836	10855	386
7475	11629	10855	11628
7481	5491	10855	11637
7482	5491	10855	11637
7483	5491	10855	11637
7484	5491	10855	11637
7485	5491	10855	11637
7486	5491	10855	11637
7487	5491	10855	11637
7488	5491	10855	11637
7492	836	10855	9705
7493	836	10855	9715
7494	836	10855	9705
7495	836	10855	9715
7496	836	10855	9705
7497	11642	10855	11639
7500	11634	10855	11632
7501	11634	10855	11632
7502	11634	10855	11632
7503	11634	10855	11632
7640	9126	10855	9125
7641	9126	10855	9125
7642	9131	10855	9102
7643	9131	10855	9102
7711	6564	10855	6565
7714	8078	8079	8080
7715	8078	8079	8080
7727	836	10855	422
7741	836	10855	12310
7772	9340	9338	9337
7773	9344	10855	9341
7774	5491	10855	5485
7786	9450	10855	9449
7793	9378	10855	9449
7795	7609	10855	7607
7797	9440	10855	9439
7798	9418	10855	9414
7799	264	10855	260
7800	9472	10855	9413
7801	9467	-1	9466
7802	9467	-1	9466
7803	9467	-1	9466
7804	9467	-1	9466
7805	9440	10855	9439
7807	5555	10855	5554
7808	5555	10855	5554
7823	1804	10855	17905
7828	6267	10855	6265
7829	3430	10855	3428
7837	836	10855	390
7838	836	10855	390
7867	6618	10855	6618
7873	836	10855	422
7874	836	10855	422
7875	836	10855	422
7876	836	10855	422
7877	836	10855	422
7878	836	10855	422
7879	836	10855	422
7880	836	10855	422
7881	836	10855	422
7882	836	10855	422
7883	836	10855	422
7884	836	10855	422
7913	8788	10855	8785
7914	12896	10855	12894
7915	7244	10855	7242
7916	12893	10855	12891
7917	12893	10855	12891
7918	12893	10855	12891
7919	12893	10855	12891
7920	14860	10855	14859
7921	12869	10855	12863
7922	4917	10855	4915
7923	12869	10855	12839
7924	12869	10855	12839
7925	12869	10855	12839
7926	12869	10855	12839
7927	12869	10855	12839
7928	12870	10855	12839
7994	836	10855	390
8125	5534	10855	5532
8127	-1	10855	-1
8133	10059	10386	10057
8149	5575	10855	5571
8150	5575	10855	10474
8151	5575	10855	5571
8152	5575	10855	5571
8153	5575	10855	10474
8241	10597	10855	10591
8243	10597	10855	10591
8245	10597	10855	10591
8247	10597	10855	10591
8249	10597	10855	10591
8281	-1	10855	10680
8286	10660	10638	10637
8287	10660	10638	10637
8288	10660	10638	10637
8289	10660	10638	10641
8290	10661	10659	10658
8291	10660	10855	10637
8292	10660	10855	10637
8293	10660	10855	10637
8294	10660	10855	10637
8295	10660	10855	10641
8312	10846	10855	10844
8316	10847	10855	10848
8320	10850	10855	10851
8324	10856	10855	10854
8334	10977	10855	10793
8335	10800	10855	10795
8339	7185	10855	7183
8344	7185	10855	414
8348	836	10855	2078
8349	10924	10923	10922
8358	10924	10855	10922
8377	10815	10818	10816
8378	10815	10855	10816
8379	10815	10855	10816
8380	10815	10855	10816
8381	10815	10855	10816
8382	10815	10855	10816
8383	10815	10855	10816
8384	10815	10855	10816
8385	10815	10855	10816
8386	10815	10855	10816
8387	10815	10855	13791
8388	10815	10855	13791
8389	10815	10855	13791
8390	10815	10855	13791
8391	10815	10855	13791
8392	10815	10855	13791
8435	7185	10855	7183
8436	7185	10855	7183
8437	836	10855	395
8438	836	10855	395
8439	836	10855	395
8440	836	10855	395
8501	11001	10855	11000
8528	12694	12693	12697
8549	11081	10855	-1
8557	11120	10855	11116
8559	11120	10855	11116
8561	11122	10855	-1
8563	11122	10855	-1
8565	11112	10855	-1
8567	11112	10855	-1
8576	11108	10855	-1
8596	11199	11198	11197
8597	11204	11203	11202
8598	8078	8079	8080
8599	8570	8571	8569
8645	843	10855	391
8646	13785	10855	13791
8648	156	10855	153
8660	11477	10855	11471
8763	836	10855	12310
8771	12150	10855	12146
8773	102	10855	99
8776	12181	10855	99
8777	12181	100	12141
8779	102	10855	99
8781	102	10855	12173
8782	102	10855	12173
8783	102	10855	99
8784	102	10855	99
8813	102	10855	99
8832	8844	12194	8843
8833	12199	12201	12204
8834	12206	12208	12205
8871	836	10855	422
8872	836	10855	422
8874	836	10855	422
8980	20258	-1	20255
8981	27891	27889	27890
8986	9450	10855	5498
8987	9467	10855	12519
8988	12518	10855	12515
8989	12518	10855	12515
8992	12518	10855	12515
8993	5490	10855	5488
9020	27599	27598	27597
9021	27606	27607	27604
9030	27613	-1	27612
9031	22638	22635	22637
9040	27594	27591	27590
9041	27562	-1	-1
9051	836	10855	12310
9052	2980	10855	2975
9062	22865	-1	-1
9063	27569	-1	-1
9064	27606	27607	27604
9065	27613	-1	27612
9089	1342	10855	1341
9092	1342	10855	1341
9104	27594	27591	27590
9107	1342	10855	1341
9172	12039	12040	12041
9176	12066	12070	12062
9177	12066	12070	12062
9178	12067	10855	12063
9179	12068	10855	12064
9180	12069	10855	12065
9310	11503	-1	-1
9356	836	3332	3331
9357	836	10855	3331
9382	5329	10855	5327
9437	11204	10855	11202
9451	5534	10855	5532
9452	5534	10855	5532
9453	5534	10855	5532
9454	5534	5533	5532
9455	9514	10855	9501
9463	12793	12792	12791
9465	12793	12792	12791
9467	12793	12792	12791
9607	12870	10855	12839
9608	12870	10855	12839
9609	12870	10855	12839
9612	12869	10855	12841
9613	12869	10855	12841
9614	12869	10855	12841
9615	12869	10855	12841
9616	12869	10855	12841
9617	12870	10855	12841
9618	12870	10855	12841
9619	12870	10855	12841
9620	12870	10855	12841
9621	12870	10855	12841
9725	13424	10855	13496
9753	13353	10855	13276
9754	13353	10855	13276
9755	13353	10855	13276
9756	13353	10855	13276
9757	13353	10855	13276
9758	13353	10855	13276
9759	13353	10855	13276
9760	13353	10855	13276
9761	13353	10855	13276
9762	13353	10855	13276
9763	13353	10855	13276
9764	13353	10855	13276
9765	13353	10855	13276
9766	13353	10855	13276
9767	13702	13707	13703
9768	13702	13707	13703
9769	13702	13707	13703
9770	13702	13707	13703
9771	13702	13707	13703
9772	13702	13707	13703
9773	13702	13707	13703
9774	13702	13707	13703
9775	13702	13707	13703
9776	13702	13707	13703
9777	13702	13707	13703
9778	13702	13707	13703
9779	13702	13707	13703
9780	13702	13707	13703
9771	13702	13707	13703
9842	13472	10855	13469
9856	13481	10855	13479
9857	13481	10855	13479
9858	13481	10855	13479
9898	14378	10855	14380
9905	14378	10855	14380
9912	13336	10855	13337
9929	13772	10855	-1
9948	13715	10855	13717
9949	13715	10855	13717
9950	13715	10855	13717
9951	13715	10855	13717
9952	13715	10855	13717
9953	13715	10855	13717
9954	13715	10855	13717
9955	13715	10855	13717
9956	13715	10855	13717
9957	13715	10855	13717
9958	13715	10855	13717
9959	13715	10855	13717
9960	13715	10855	13717
9961	13715	10855	13717
9962	13715	10855	13717
9963	13715	10855	13717
9964	13715	10855	13717
9965	836	2079	2080
9966	836	2079	2080
9967	836	2079	2080
9968	836	2079	2080
9969	836	2079	2080
9970	836	2079	2080
9971	836	2079	2080
9972	836	2079	2080
9973	836	2079	2080
9974	836	2079	2080
9975	836	2079	2080
9976	836	2079	2080
9977	836	2079	2080
9978	836	2079	2080
9979	836	2079	2080
9980	836	2079	2080
9981	836	2079	2080
9982	836	2079	2080
9983	836	2079	2080
9984	836	2079	2080
9985	836	2079	2080
9986	836	2079	2080
9987	836	2079	2080
9988	836	2079	2080
9989	836	2079	2080
9990	836	2079	2080
9991	836	2079	2080
9992	836	2079	2080
9993	836	2079	2080
9994	836	2079	2080
9995	836	2079	2080
9996	836	2079	2080
9997	836	2079	2080
9998	836	2079	2080
9999	836	2079	2080
10000	836	2079	2080
10001	836	2079	2080
10002	836	2079	2080
10003	836	2079	2080
10004	836	2079	2080
10005	836	2079	2080
10006	836	2079	2080
10007	836	2079	2080
10008	836	2079	2080
10009	836	2079	2080
10010	836	2079	2080
10011	836	2079	2080
10012	836	2079	2080
10013	836	2079	2080
10014	836	2079	2080
10015	836	2079	2080
10016	836	2079	2080
10017	836	2079	2080
10018	836	2079	2080
10019	836	2079	2080
10020	836	2079	2080
10021	836	2079	2080
10024	14378	10855	14380
10040	13785	10855	13791
10041	13785	10855	13791
10042	13785	10855	13791
10043	13785	10855	13791
10044	13785	10855	13791
10045	13785	10855	13791
10046	13785	10855	13791
10047	13785	10855	13791
10048	13785	10855	13791
10049	13785	10855	13791
10050	13785	10855	13791
10051	13785	10855	13791
10052	13785	10855	13791
10053	13785	10855	13791
10054	13785	10855	13791
10055	13785	10855	13791
10056	13785	10855	13791
10057	13785	10855	13791
10059	12987	10855	12989
10073	13005	10855	13001
10074	13005	10855	13001
10075	13005	10855	13001
10076	13005	10855	13001
10077	13005	10855	13001
10078	13005	10855	13001
10079	13005	10855	13001
10080	13005	10855	13001
10081	13005	10855	13001
10082	13005	10855	13001
10083	13005	10855	13001
10084	13005	10855	13001
10085	13005	10855	13001
10086	13005	10855	13001
10087	13005	10855	13001
10088	13005	10855	13001
10089	13005	10855	13001
10090	13005	10855	13001
10091	13005	10855	13001
10092	13005	10855	13001
10093	13005	10855	13001
10094	13005	10855	13001
10095	13005	10855	13001
10096	13005	10855	13001
10097	13005	10855	13001
10098	13005	10855	13001
10099	13005	10855	13001
10100	13005	10855	13001
10101	13005	10855	13001
10102	13005	10855	13001
10103	13005	10855	13001
10104	13005	10855	13001
10105	13005	10855	13001
10080	13005	-1	13001
10111	13171	10855	13169
10128	19574	10855	-1
10143	13018	10855	-1
10157	5329	5238	5327
10158	5329	5238	5327
10159	5329	5238	5327
10160	5329	5238	5327
10161	5329	5238	5327
10162	5329	5238	5327
10163	5329	5238	5327
10164	5329	5238	5327
10165	5329	5238	5327
10166	5329	5238	5327
10167	5329	5238	5327
10168	188	190	185
10169	188	190	185
10170	188	190	185
10171	188	190	185
10172	188	190	185
10173	188	190	185
10174	188	190	185
10175	188	190	185
10176	188	190	185
10177	188	190	185
10178	836	-1	390
10179	836	-1	390
10180	836	-1	390
10181	836	-1	390
10182	836	-1	390
10183	836	-1	390
10184	836	-1	390
10185	836	-1	390
10186	836	-1	390
10187	836	-1	390
10188	6576	6578	6562
10189	6576	6578	6562
10190	6576	6578	6562
10191	6576	6578	6562
10192	6576	6578	6562
10193	6576	6578	6562
10194	6576	6578	6562
10195	6576	6578	6562
10196	836	-1	437
10197	836	-1	437
10198	836	-1	437
10199	836	-1	437
10200	836	-1	437
10201	836	-1	437
10202	836	-1	437
10203	836	-1	437
10204	836	-1	437
10205	836	-1	437
10206	836	-1	437
10212	8078	8079	8080
10213	8078	8079	8080
10214	8078	8079	8080
10215	8078	8079	8080
10216	8078	8079	8080
10217	8078	8079	8080
10218	8078	8079	8080
10219	13153	13154	13151
10220	13153	13154	13151
10221	13153	13154	13151
10222	13153	13154	13151
10223	13153	13154	13151
10224	13153	13154	13151
10225	843	389	391
10226	843	389	391
10227	843	389	391
10228	843	389	391
10229	843	389	391
10230	843	389	391
10231	843	389	391
10232	843	389	391
10233	843	389	391
10234	843	389	391
10235	843	389	391
10236	165	164	163
10237	165	164	163
10238	165	164	163
10239	165	164	163
10240	165	164	163
10241	165	164	163
10242	165	164	163
10243	165	164	163
10244	165	164	163
10245	165	164	163
10246	2304	10855	12028
10247	2304	10855	13052
10248	2304	10855	13052
10249	2304	10855	13049
10250	2304	10855	13035
10251	836	10855	428
10252	2304	10855	13035
10253	2304	10855	13049
10254	2304	10855	13035
10255	2304	10855	13055
10256	2304	10855	12305
10257	2304	10855	13049
10258	2304	10855	13052
10259	2304	10855	13035
10260	2304	10855	13049
10261	2304	10855	13035
10262	2304	10855	12006
10263	2304	10855	12305
10264	836	10855	401
10265	836	10855	1665
10266	2304	10855	12028
10267	2304	10855	13049
10268	836	10855	395
10269	836	10855	1665
10270	836	10855	12305
10271	2304	10855	13039
10272	836	10855	7041
10273	2304	10855	10505
10274	836	10855	12305
10275	836	10855	12311
10276	2304	10855	15072
10277	836	10855	12310
10278	2304	10855	10505
10279	836	10855	1665
10280	2304	10855	13039
10281	836	10855	12311
10282	2304	10855	13039
10283	836	10855	7041
10284	836	10855	12310
10285	836	10855	401
10286	836	10855	428
10287	836	10855	12305
10288	836	10855	12305
10289	836	10855	12311
10290	836	10855	428
10291	836	10855	12310
10292	836	10855	395
10293	836	10855	1665
10294	836	10855	12311
10295	836	10855	12310
10296	836	10855	401
10297	836	10855	1665
10298	836	10855	12305
10299	836	10855	12311
10300	836	10855	7041
10301	836	10855	395
10302	836	10855	12305
10303	836	10855	395
10304	836	10855	1665
10305	836	10855	12310
10306	836	10855	12311
10307	836	10855	428
10308	836	10855	401
10320	836	10855	426
10321	836	10855	426
10322	836	10855	426
10323	836	10855	426
10324	836	10855	426
10325	836	10855	426
10326	836	10855	426
10327	836	10855	426
10328	836	10855	426
10329	836	10855	426
10330	836	10855	426
10331	836	10855	426
10332	836	10855	426
10333	836	10855	426
10334	836	10855	426
10335	836	10855	426
10336	836	10855	426
10337	836	10855	426
10338	836	10855	426
10339	836	10855	426
10340	836	10855	426
10341	836	10855	426
10342	836	10855	426
10343	836	10855	426
10344	836	10855	426
10345	836	10855	426
10346	836	10855	426
10347	836	10855	426
10348	836	10855	426
10349	836	10855	426
10350	836	10855	426
10351	836	10855	426
10352	836	10855	426
10353	836	10855	426
10354	836	10855	426
10355	836	10855	426
10356	836	10855	426
10357	836	10855	426
10358	836	10855	426
10359	836	10855	426
10360	836	10855	426
10361	836	10855	426
10362	836	10855	426
10363	836	10855	426
10364	5569	5567	5568
10365	5569	5567	5568
10366	5569	5567	5568
10367	5569	5567	5568
10368	5569	5567	5568
10369	5569	5567	5568
10370	5569	5567	5568
10371	5569	5567	5568
10372	5569	5567	5568
10373	5569	5567	5568
10374	5569	5567	5568
10374	5575	5574	5581
10375	5575	5574	5581
10376	5575	5574	5581
10377	5575	5574	5581
10378	5575	5574	5581
10379	5575	5574	5581
10380	5575	5574	5581
10381	5575	5574	5581
10382	5575	5574	5581
10383	5575	5574	5581
10384	5575	5574	5581
10385	5575	5574	5581
10397	836	10855	12305
10398	836	10855	12305
10399	836	10855	12305
10400	836	10855	401
10401	836	10855	395
10402	836	10855	7041
10403	836	10855	12311
10404	836	10855	12311
10405	836	10855	401
10406	836	10855	428
10407	836	10855	428
10408	836	10855	12305
10409	836	10855	1665
10410	836	10855	12310
10411	836	10855	395
10412	836	10855	12305
10413	836	10855	7041
10414	836	10855	12310
10415	836	10855	12311
10416	836	10855	1665
10417	836	10855	401
10418	836	10855	12310
10419	836	10855	12305
10420	836	10855	1665
10421	836	10855	401
10422	836	10855	395
10423	836	10855	428
10424	836	10855	12311
10425	836	10855	12311
10426	836	10855	395
10427	836	10855	1665
10428	836	10855	12310
10429	836	10855	401
10430	836	10855	7041
10431	836	10855	12305
10432	836	10855	12310
10433	836	10855	401
10434	836	10855	428
10435	836	10855	12305
10436	836	10855	12311
10437	836	10855	428
10438	836	10855	395
10439	836	10855	12305
10440	836	10855	12310
10441	836	10855	7041
10442	836	10855	401
10443	836	10855	395
10444	836	10855	1665
10445	836	10855	12311
10446	836	10855	401
10447	836	10855	395
10448	836	10855	428
10449	836	10855	12310
10450	836	10855	12311
10451	836	10855	7041
10452	836	10855	12305
10453	836	10855	12310
10454	836	10855	12311
10455	836	10855	1665
10456	836	10855	12305
10458	836	10855	428
10457	836	10855	395
10459	836	10855	401
10460	11642	11640	11639
10461	11642	11640	11639
10462	11642	11640	11639
10463	11642	11640	11639
10464	11642	11640	11639
10465	11642	11640	11639
10466	11642	11640	11639
10467	11642	11640	11639
10468	11642	11640	11639
10469	5491	5489	5485
10470	5491	5489	5485
10471	5491	5489	5485
10472	5491	5489	5485
10473	5491	5489	5485
10474	5491	5489	5485
10475	5491	5489	5485
10476	5491	5489	5485
10477	5491	5489	5485
10478	5491	5489	5485
10479	5491	5489	5485
10480	14860	14861	14859
10481	14860	14861	14859
10482	14860	14861	14859
10483	14860	14861	14859
10484	14860	14861	14859
10485	14860	14861	14859
10486	14860	14861	14859
10492	67	65	64
10493	67	65	64
10494	67	65	64
10495	67	65	64
10496	5329	5238	5327
10497	5329	5238	5327
10498	5329	5238	5327
10499	5329	5238	5327
10500	5329	5238	5327
10501	5329	5238	5327
10502	5329	5238	5327
10503	5329	5238	5327
10504	5329	5238	5327
10505	5329	5238	5327
10506	5329	5238	5327
10507	836	10855	12305
10508	836	10855	12311
10509	836	10855	428
10510	836	10855	401
10511	836	10855	395
10512	836	10855	7041
10513	836	10855	12310
10514	836	10855	12310
10515	836	10855	395
10516	836	10855	7041
10517	836	10855	12311
10518	836	10855	401
10519	836	10855	1665
10520	836	10855	12305
10521	836	10855	12310
10522	836	10855	12311
10523	836	10855	1665
10524	836	10855	12305
10525	836	10855	401
10526	836	10855	428
10527	836	10855	395
10528	836	10855	12310
10529	836	10855	12311
10530	836	10855	1665
10531	836	10855	12305
10532	836	10855	401
10533	836	10855	7041
10534	836	10855	395
10535	836	10855	12305
10536	836	10855	12310
10537	836	10855	7041
10538	836	10855	12311
10539	836	10855	395
10540	836	10855	428
10541	836	10855	401
10542	836	10855	12311
10543	836	10855	395
10544	836	10855	428
10545	836	10855	12310
10546	836	10855	401
10547	836	10855	1665
10548	836	10855	12305
10560	2304	10855	-1
10561	2304	10855	-1
10562	2304	10855	-1
10563	2304	10855	-1
10564	2304	10855	-1
10565	2304	10855	-1
10566	2304	10855	-1
10567	2304	10855	-1
10568	2304	10855	-1
10569	2304	10855	-1
10570	2304	10855	-1
10571	2304	10855	-1
10572	2304	10855	-1
10573	2304	10855	-1
10574	2304	10855	-1
10575	2304	10855	-1
10576	2304	10855	-1
10577	2304	10855	-1
10578	2304	10855	-1
10579	2304	10855	-1
10580	2304	10855	-1
10581	2304	10855	-1
10582	2304	10855	-1
10583	2304	10855	-1
10584	2304	10855	-1
10585	2304	10855	-1
10586	2304	10855	-1
10587	2304	10855	-1
10588	2304	10855	-1
10589	2304	10855	-1
10590	2304	10855	-1
10591	2304	10855	-1
10592	2304	10855	-1
10593	2304	10855	-1
10594	2304	10855	-1
10595	2304	10855	-1
10596	2304	10855	-1
10597	2304	10855	-1
10598	2304	10855	-1
10599	2304	10855	-1
10600	2304	10855	-1
10601	2304	10855	-1
10602	2304	10855	-1
10603	2304	10855	-1
10604	12250	13154	13151
10605	13153	13154	13151
10606	13153	13154	13151
10607	13153	13154	13151
10608	13153	13154	13151
10609	13153	13154	13151
10610	7937	7936	7934
10611	7937	7936	7934
10612	7937	7936	7934
10613	7937	7936	7934
10614	7937	7936	7934
10615	7937	7936	7934
10616	7937	7936	7934
10617	7937	7936	7934
10618	7937	7936	7934
10629	5491	5489	5485
10630	5491	5489	5485
10631	5491	5489	5499
10632	5491	5489	5499
10633	5491	5489	5485
10634	5491	5489	5507
10635	5491	5489	5499
10636	5491	5489	5499
10637	5491	5489	5485
10638	5491	5489	5507
10639	5491	5489	5507
10640	5491	5489	5487
10641	5491	5489	5499
10642	5491	5489	5487
10643	5491	5489	5485
10644	5491	5489	5507
10645	5491	5489	5487
10646	5491	5489	5485
10647	5491	5489	5499
10648	5491	5489	5499
10649	5491	5489	5507
10650	5491	5489	5499
10651	5491	5489	5499
10652	5491	5489	5499
10653	5491	5489	5507
10654	5491	5489	5487
10655	5491	5489	5499
10656	5491	5489	5499
10657	5491	5489	5507
10658	5491	5489	5499
10659	5491	5489	5487
10660	5491	5489	5499
10661	5491	5489	5507
10662	5491	5489	5507
10663	5491	5489	5487
10664	5491	5489	5507
10665	5491	5489	5499
10666	5491	5489	5507
10667	5491	5489	5487
10668	5491	5489	5507
10669	5491	5489	5499
10670	5491	-1	5499
10671	5491	-1	5499
10672	5491	-1	5499
10673	5491	-1	5499
10674	5491	-1	5499
10675	5491	-1	5499
10676	5491	-1	5499
10677	5491	-1	5499
10678	5491	-1	5499
10679	5491	-1	5499
10680	5491	-1	5499
10681	5491	-1	5499
10682	5491	-1	5523
10683	5491	-1	5523
10684	5491	-1	5523
10685	5491	-1	5523
10686	5491	-1	5523
10687	5491	-1	5523
10688	5491	-1	5523
10689	5491	-1	5523
10690	5491	-1	5523
10691	5491	-1	5523
10692	5491	-1	5523
10693	5491	-1	5523
10694	9126	9127	9125
10695	265	267	266
10696	1792	1791	1789
10697	11211	8079	8080
10698	5329	5238	5327
10699	8570	8571	8569
10700	836	10855	13035
10701	13772	10855	13779
10702	9488	9489	9487
10704	13733	10855	13734
10705	13772	10855	13779
10706	4653	4651	4652
10707	4653	4651	4652
10708	4653	4651	4652
10709	4653	4651	4652
10710	4653	4651	4652
10712	4653	4651	4652
10713	4653	4651	4652
10714	4653	4651	4652
10715	4653	4651	4652
10716	4653	4651	4652
10717	4653	4651	4652
10718	67	65	64
10719	67	65	64
10720	67	65	64
10721	67	65	64
10722	67	65	64
10723	67	65	64
10724	67	65	64
10725	67	65	64
10726	6558	-1	6559
10727	6558	-1	6559
10728	6558	-1	6559
10729	6558	-1	6559
10730	6558	-1	6559
10731	6558	-1	6559
10732	6558	-1	6559
10733	6558	-1	6559
10734	6558	-1	6559
10735	6558	-1	6559
10736	836	424	422
10737	836	424	422
10738	836	424	422
10739	836	424	422
10740	836	424	422
10741	836	424	422
10742	836	424	422
10743	836	424	422
10744	13481	13478	13479
10745	13481	13478	13479
10746	13481	13478	13479
10747	13481	13478	13479
10748	13481	13478	13479
10749	13481	13478	13479
10750	13481	13478	13479
10751	13481	13478	13479
10752	13481	13478	13479
10753	13481	13478	13479
10754	4668	4651	4666
10755	4668	4651	4666
10756	4668	4651	4666
10757	4668	4651	4666
10758	4668	4651	4666
10759	4668	4651	4666
10760	4668	4651	4666
10761	4668	4651	4666
10762	4653	4664	4652
10763	4653	4664	4652
10764	4653	4664	4652
10765	4653	4664	4652
10766	4653	4664	4652
10767	4653	4664	4652
10768	4653	4664	4652
10769	4653	4664	4652
10770	13153	13154	13151
10771	13153	13154	13151
10772	13153	13154	13151
10773	13153	13154	13151
10774	13153	13154	13151
10775	13153	13154	13155
10776	13159	13154	13158
10777	13159	13154	13158
10778	13159	13154	13158
10779	13159	13154	13158
10780	13159	13154	13158
10781	13159	13154	13158
10782	13785	13792	13788
10783	13785	13792	13788
10784	13785	13792	13788
10785	13785	13792	13788
10786	13785	13792	13788
10787	13785	13792	13788
10788	13785	13792	13788
10789	13785	13792	13788
10790	13785	13792	13788
10791	13785	13792	13790
10792	13785	13792	13790
10793	13785	13792	13790
10794	13785	13792	13790
10795	13785	13792	13790
10796	13785	13792	13790
10797	13062	-1	13061
10798	13062	-1	13061
10799	13062	-1	13061
10800	13062	-1	13061
10801	13062	-1	13061
10802	13062	-1	13061
10803	13062	-1	13061
10804	13062	-1	13061
10805	13062	-1	13061
10806	13062	-1	13061
10807	13062	-1	13061
10808	13062	-1	13061
10809	13062	-1	13061
10810	13062	-1	13061
10811	13062	-1	13061
10812	13062	-1	13061
10813	13062	-1	13061
10814	13062	-1	13061
10815	13153	13154	13151
10816	13153	13154	13151
10817	13153	13154	13151
10818	13153	13154	13151
10819	13153	13154	13151
10820	13153	13154	13151
10821	5534	5533	5532
10822	5534	5533	5532
10823	5534	5533	5532
10824	5534	5533	5532
10825	5534	5533	5532
10826	5534	5533	5532
10827	5534	5533	5532
10828	5534	5533	5532
10829	5534	5533	5532
10830	5534	5533	5532
10831	13407	13406	13398
10832	13407	13406	13398
10833	13407	13406	13398
10834	13407	13406	13398
10835	13407	13406	13398
10836	13407	13406	13398
10837	13407	13406	13398
10838	13407	13406	13398
10839	13407	13406	13398
10840	13407	13406	13398
10841	13407	13406	13398
10842	13407	13406	13398
10843	836	10855	12310
10844	836	10855	401
10845	836	10855	428
10846	836	10855	12305
10847	836	10855	395
10848	836	10855	7041
10849	836	10855	12311
10850	836	10855	12305
10851	836	10855	12311
10852	836	10855	7041
10853	836	10855	12310
10854	836	10855	395
10855	836	10855	1665
10856	836	10855	401
10857	836	10855	12310
10858	836	10855	395
10859	836	10855	1665
10860	836	10855	12311
10861	836	10855	401
10862	836	10855	428
10863	836	10855	12305
10864	836	10855	401
10865	836	10855	395
10866	836	10855	7041
10867	836	10855	12305
10868	836	10855	12311
10869	836	10855	1665
10870	836	10855	12310
10871	836	10855	12311
10872	836	10855	12311
10873	836	10855	428
10874	836	10855	12305
10875	836	10855	12310
10876	836	10855	7041
10877	836	10855	395
10878	836	10855	12310
10879	836	10855	12311
10880	836	10855	1665
10881	836	10855	401
10882	836	10855	12305
10883	836	10855	428
10884	836	10855	12305
10885	836	10855	12305
10886	836	10855	12310
10887	836	10855	428
10888	836	10855	12311
10889	836	10855	395
10890	836	10855	1665
10891	836	10855	401
10892	836	10855	12311
10893	836	10855	401
10894	836	10855	7041
10895	836	10855	12305
10896	836	10855	395
10897	836	10855	428
10898	836	10855	12310
10899	836	10855	401
10900	836	10855	395
10901	836	10855	1665
10902	836	10855	12305
10903	836	10855	12310
10904	836	10855	7041
10905	836	10855	12311
10906	4917	4916	4915
10907	4917	4916	4915
10908	4917	4916	4915
10909	4917	4916	4915
10910	4917	4916	4915
10911	4917	4916	4915
10912	4917	4916	4915
10913	4917	4916	4915
10914	4917	4916	4915
10981	5542	5541	5540
10982	5542	5541	5540
10983	5542	5541	5540
10984	5542	5541	5540
10985	5542	5541	5540
10986	5542	5541	5540
10987	5542	5541	5540
10988	5542	5541	5540
10989	5542	5541	5540
10990	5542	5541	5540
10991	5542	5541	5540
10992	5542	5541	5540
10993	5542	5541	5540
10994	5542	5541	5540
10995	5542	5541	5540
10996	5542	5541	5540
10997	5542	5541	5540
10998	5542	5541	5540
10999	5542	5541	5540
11000	5542	5541	5540
11107	13683	10855	13617
11109	13683	10855	13617
11111	13683	10855	13617
11113	13683	10855	13617
11115	13683	10855	13617
11117	13683	10855	13617
11119	13683	10855	13617
11121	13683	10855	13617
11123	13683	10855	13617
11125	13683	10855	13617
11127	13675	10855	13620
11129	13675	10855	13620
11131	13675	10855	13620
11133	13675	10855	13620
11135	13675	10855	13620
11137	13675	10855	13620
11139	13675	10855	13620
11141	13675	10855	13620
11143	13675	10855	13620
11145	13675	10855	13620
11147	13683	10855	13617
11149	13683	10855	13617
11151	13683	10855	13617
11153	13683	10855	13617
11155	13683	10855	13617
11157	13683	10855	13617
11159	13683	10855	13617
11161	13683	10855	13617
11163	13683	10855	13617
11165	13683	10855	13617
11167	13675	10855	13620
11169	13675	10855	13620
11171	13675	10855	13620
11173	13675	10855	13620
11175	13675	10855	13620
11177	13675	10855	13620
11179	13675	10855	13620
11181	13675	10855	13620
11183	13675	10855	13620
11185	13675	10855	13620
11187	13683	10855	13617
11189	13683	10855	13617
11191	13683	10855	13617
11193	13683	10855	13617
11195	13683	10855	13617
11197	13683	10855	13617
11199	13683	10855	13617
11201	13683	10855	13617
11203	13683	10855	13617
11205	13683	10855	13617
11207	13669	10855	13615
11209	13669	10855	13615
11211	13669	10855	13615
11213	13669	10855	13615
11215	13669	10855	13615
11217	13669	10855	13615
11219	13669	10855	13615
11221	13669	10855	13615
11223	13669	10855	13615
11225	13669	10855	13615
11232	6182	6189	6184
11255	13785	10855	13786
11260	6182	6183	6184
11264	6031	10855	6016
11265	836	10855	422
11266	8144	10855	8143
11324	13849	10855	-1
11325	13849	10855	-1
11326	13849	10855	-1
11327	-1	10855	-1
11331	13930	10855	13934
11352	13930	10855	13934
11353	13915	10855	-1
11354	13923	10855	13926
11359	14019	10855	14031
11360	14020	10855	14032
11361	14021	10855	14033
11362	14022	10855	14034
11441	13062	-1	13061
11442	13062	-1	13061
11443	13062	-1	13061
11444	13062	-1	13061
11445	13062	-1	13061
11446	13062	-1	13061
11447	13062	-1	13061
11448	13062	-1	13061
11449	13062	-1	13061
11450	-1	10855	-1
11533	13785	10855	13788
11562	6564	10855	6565
11563	8576	10855	8577
11564	8844	10855	8843
11565	7609	10855	7607
11566	17461	10855	17462
11567	14248	10855	14247
11593	17461	10855	17462
11638	836	10855	422
11639	836	10855	376
11696	10856	10855	10854
11722	5491	10855	5485
11737	836	10855	14222
11738	836	10855	14222
11739	836	10855	14222
11740	836	10855	14222
11741	836	10855	14222
11742	836	10855	14222
11743	836	10855	14222
11744	836	10855	14222
11745	836	10855	14222
11746	836	10855	14222
11747	836	10855	14222
11748	836	10855	14222
11749	836	10855	14222
11750	836	10855	14222
11751	836	10855	14222
11752	14425	10855	14423
11872	14378	10855	14380
11887	836	10855	-1
11895	14468	10855	14469
11910	14487	10855	14475
11925	14467	10855	13320
11940	836	10855	13052
11999	836	10855	-1
12044	836	10855	-1
12299	13785	10855	13791
12327	8176	10855	8172
12360	6182	6183	6184
12361	6182	6189	6184
12367	836	10855	12310
12368	836	10855	12310
12448	14917	10855	14916
12463	14917	10855	14916
12478	14891	10855	14892
12491	14891	10855	14892
12493	14891	10855	14892
12508	14891	10855	14892
12553	14891	10855	14892
12587	14891	10855	14892
12647	14891	10855	14892
12677	14891	10855	14892
12737	15003	10855	15004
12743	15003	15000	15001
12752	14378	10855	14380
12767	14378	10855	19572
12782	14378	10855	19561
12797	14378	10855	19571
12805	-1	-1	14963
12812	14378	10855	19568
12827	14378	10855	19556
12848	14974	-1	14973
12849	14974	-1	14973
12850	14974	-1	14973
12851	14974	-1	14973
12852	14974	-1	14973
12853	14974	-1	14973
12854	14974	-1	14973
12855	14974	-1	14973
12856	14974	-1	14973
12857	14974	-1	14973
12858	14974	-1	14973
12859	14974	-1	14973
12860	14974	-1	14973
12861	14974	-1	14973
12862	14974	-1	14973
12880	13785	10855	13786
12886	14455	10855	14457
12903	11112	11113	11121
12904	11112	11113	11121
12905	11112	11113	11121
12906	11112	11113	11121
12907	11112	11113	11121
12908	11112	11113	11121
12909	11112	11113	11121
12910	11112	11113	11121
12911	11112	11113	11121
12912	11112	11113	11121
12913	11112	11113	11121
12914	14860	-1	14859
12915	14860	-1	14859
12916	14860	-1	14859
12917	14860	-1	14859
12918	14860	-1	14859
12919	14860	-1	14859
12920	14860	-1	14859
12920	14860	-1	14859
12921	1934	-1	1932
12922	6558	-1	6559
12923	6558	-1	6559
12924	6558	-1	6559
12925	6558	-1	6559
12926	6558	-1	6559
12927	6558	-1	6559
12928	6558	-1	6559
12929	6558	-1	6559
12930	6558	-1	6559
12931	6558	-1	6559
12932	13062	-1	13061
12933	13062	-1	13061
12934	13062	-1	13061
12935	13062	-1	13061
12936	13062	-1	13061
12937	13062	-1	13061
12938	13062	-1	13061
12939	13062	-1	13061
12940	13062	-1	13061
12941	11120	11117	11116
12942	11120	11117	11116
12943	11120	11117	11116
12944	11120	11117	11116
12945	11120	11117	11116
12946	11120	11117	11116
12947	11120	11117	11116
12948	11120	11117	11116
12949	11120	11117	11116
12950	11120	11117	11116
12951	11120	11117	11116
12973	2304	10855	-1
12974	2304	10855	-1
12975	2304	10855	-1
12976	2304	10855	-1
12977	2304	10855	-1
12978	2304	10855	-1
12979	2304	10855	-1
12980	2304	10855	-1
12981	2304	10855	-1
12982	2304	10855	-1
12983	2304	10855	-1
13229	67	10855	64
13447	6951	6983	6354
13451	836	-1	-1
13452	836	-1	-1
13453	836	-1	-1
13454	836	-1	-1
13456	15238	10855	7041
13457	14607	10855	14608
13458	7000	7008	7004
13459	836	10855	1979
13460	15252	15253	15251
13465	7408	7404	7407
13469	7448	7450	7449
13471	7482	7483	7481
13472	7419	7420	7418
13473	7428	7429	7427
13474	7398	7399	7397
13475	7454	7445	7453
13476	7461	7462	7460
13477	7475	7476	7474
13478	7412	7413	7411
13479	7468	7469	7467
13480	7442	7443	7441
13481	14265	14264	14261
13646	1934	1935	1932
14228	836	-1	7042
14229	836	-1	7042
14230	836	-1	7042
14231	836	-1	7042
14301	9961	9962	9955
106477	5619	5618	5617